{
  "formatVersion": 1,
  "database": {
    "version": 3,
    "identityHash": "684ac384beb861e0379e49c420a263e4",
    "entities": [
      {
        "tableName": "DbAccountValidationTry",
        "createSql": "CREATE TABLE IF NOT EXISTS `${TABLE_NAME}` (`tryDate` TEXT, `success` INTEGER NOT NULL)",
        "fields": [
          {
            "fieldPath": "tryDate",
            "columnName": "tryDate",
            "affinity": "TEXT",
            "notNull": false
          },
          {
            "fieldPath": "success",
            "columnName": "success",
            "affinity": "INTEGER",
            "notNull": true
          }
        ],
        "primaryKey": {
          "columnNames": [],
          "autoGenerate": false
        },
        "indices": [],
        "foreignKeys": []
      }
    ],
    "views": [],
    "setupQueries": [
      "CREATE TABLE IF NOT EXISTS room_master_table (id INTEGER PRIMARY KEY,identity_hash TEXT)",
      "INSERT OR REPLACE INTO room_master_table (id,identity_hash) VALUES(42, \"684ac384beb861e0379e49c420a263e4\")"
    ]
  }
}